…
# Make predictions and add to test data
predictions <- predict(model, 
                       new_data = chocolate_test) %>%
  bind_cols(chocolate_test)
```

---

## Predictions Output

\scriptsize
```{r eval=FALSE}
# A tibble: 358 x 7
    .pred final_grade review_date cocoa_percent 
    <dbl>       <dbl>       <int>         <dbl> 
1    2.5        2.75        2013          0.7   
2   3.64        3.25        2014          0.8   
3    3.3        3.5         2012          0.7   
4   3.25        3.5         2011          0.72  

  company_location bean_type  broad_bean_origin
  <fct>           <fct>      <fct>
  France          ...        ...
  France          ...        ...
  France          ...        ...
  Fiji            ...        ...
# ... with 354 more rows
```
…
